{
  "$schema": "https://ui.shadcn.com/schema.json",
  "style": "default",
  "rsc": true,
  "tsx": true,
  "tailwind": {
    "config": "tailwind.config.ts",
    "css": "app/globals.css",
    "baseColor": "gray",
    "cssVariables": false
  },
  "aliases": {
    "components": "@/app/components",
    "utils": "@/app/lib/utils/utils"
  }
}